simWorkspace/Stream2Axi4WriteOnlyMasterInterfaceAddFifo/test.vcd
$version Generated by VerilatedVcd $end
$date Tue Feb 15 00:25:26 2022
 $end
$timescale   1ns $end

 $scope module TOP $end
  $var wire  1 k( aclk $end
  $var wire  1 3( aresetn $end
  $var wire  8 C( burstLen [7:0] $end
  $var wire 32 o& m_axi_awaddr [31:0] $end
  $var wire  2 1' m_axi_awburst [1:0] $end
  $var wire  4 9' m_axi_awcache [3:0] $end
  $var wire  8 !' m_axi_awlen [7:0] $end
  $var wire  3 I' m_axi_awprot [2:0] $end
  $var wire  4 A' m_axi_awqos [3:0] $end
  $var wire  1 g& m_axi_awready $end
  $var wire  4 w& m_axi_awregion [3:0] $end
  $var wire  3 )' m_axi_awsize [2:0] $end
  $var wire  1 _& m_axi_awvalid $end
  $var wire  1 #( m_axi_bready $end
  $var wire  2 +( m_axi_bresp [1:0] $end
  $var wire  1 y' m_axi_bvalid $end
  $var wire 32 a' m_axi_wdata [31:0] $end
  $var wire  1 q' m_axi_wlast $end
  $var wire  1 Y' m_axi_wready $end
  $var wire  4 i' m_axi_wstrb [3:0] $end
  $var wire  1 Q' m_axi_wvalid $end
  $var wire 32 S( offset [31:0] $end
  $var wire  8 [( pathNumb [7:0] $end
  $var wire 32 W& s_axis_payload [31:0] $end
  $var wire  1 O& s_axis_ready $end
  $var wire  1 G& s_axis_valid $end
  $var wire  1 ;( start $end
  $var wire 32 K( startAddr [31:0] $end
  $var wire  1 c( transInterrupt $end
  $scope module Stream2Axi4WriteOnlyMasterInterfaceAddFifo $end
   $var wire  1 k( aclk $end
   $var wire  1 3( aresetn $end
   $var wire 32 S$ axi4Interconnection_m_axi_awaddr [31:0] $end
   $var wire  2 E) axi4Interconnection_m_axi_awburst [1:0] $end
   $var wire  4 5) axi4Interconnection_m_axi_awcache [3:0] $end
   $var wire  8 [$ axi4Interconnection_m_axi_awlen [7:0] $end
   $var wire  3 M) axi4Interconnection_m_axi_awprot [2:0] $end
   $var wire  4 5) axi4Interconnection_m_axi_awqos [3:0] $end
   $var wire  4 5) axi4Interconnection_m_axi_awregion [3:0] $end
   $var wire  3 =) axi4Interconnection_m_axi_awsize [2:0] $end
   $var wire  1 K$ axi4Interconnection_m_axi_awvalid $end
   $var wire  1 c$ axi4Interconnection_m_axi_bready $end
   $var wire 32 o" axi4Interconnection_m_axi_wdata [31:0] $end
   $var wire  1 3 axi4Interconnection_m_axi_wlast $end
   $var wire  4 U) axi4Interconnection_m_axi_wstrb [3:0] $end
   $var wire  1 g" axi4Interconnection_m_axi_wvalid $end
   $var wire  1 w" axi4Interconnection_s_axis_ready $end
   $var wire  1 #$ axi4Interconnection_transInterrupt $end
   $var wire  8 C( burstLen [7:0] $end
   $var wire  9 K fifoInstance_io_availability [8:0] $end
   $var wire  9 C fifoInstance_io_occupancy [8:0] $end
   $var wire 32 +$ fifoInstance_io_pop_payload [31:0] $end
   $var wire  1 ; fifoInstance_io_pop_valid $end
   $var wire  1 + fifoInstance_io_push_ready $end
   $var wire 32 S$ m_axi_awaddr [31:0] $end
   $var wire  2 E) m_axi_awburst [1:0] $end
   $var wire  4 5) m_axi_awcache [3:0] $end
   $var wire  8 [$ m_axi_awlen [7:0] $end
   $var wire  3 M) m_axi_awprot [2:0] $end
   $var wire  4 5) m_axi_awqos [3:0] $end
   $var wire  1 g& m_axi_awready $end
   $var wire  4 5) m_axi_awregion [3:0] $end
   $var wire  3 =) m_axi_awsize [2:0] $end
   $var wire  1 K$ m_axi_awvalid $end
   $var wire  1 c$ m_axi_bready $end
   $var wire  2 +( m_axi_bresp [1:0] $end
   $var wire  1 y' m_axi_bvalid $end
   $var wire 32 o" m_axi_wdata [31:0] $end
   $var wire  1 3 m_axi_wlast $end
   $var wire  1 Y' m_axi_wready $end
   $var wire  4 U) m_axi_wstrb [3:0] $end
   $var wire  1 g" m_axi_wvalid $end
   $var wire 32 S( offset [31:0] $end
   $var wire  8 [( pathNumb [7:0] $end
   $var wire 32 W& s_axis_payload [31:0] $end
   $var wire  1 + s_axis_ready $end
   $var wire  1 G& s_axis_valid $end
   $var wire  1 ;( start $end
   $var wire 32 K( startAddr [31:0] $end
   $var wire  1 #$ transInterrupt $end
   $scope module axi4Interconnection $end
    $var wire  1 k( aclk $end
    $var wire  1 3( aresetn $end
    $var wire  1 K$ axi4Interface_controlAwValidSignal $end
    $var wire  1 c$ axi4Interface_controlBReady $end
    $var wire 32 S$ axi4Interface_finalAddressReg [31:0] $end
    $var wire  1 7" axi4Interface_full_aw_fire $end
    $var wire  1 s( axi4Interface_full_b_fire $end
    $var wire  1 s( axi4Interface_full_b_fire_1 $end
    $var wire  1 s( axi4Interface_full_b_fire_2 $end
    $var wire  1 s( axi4Interface_full_b_fire_3 $end
    $var wire  1 s( axi4Interface_full_b_fire_4 $end
    $var wire  1 s( axi4Interface_full_b_fire_5 $end
    $var wire  1 s( axi4Interface_full_b_fire_6 $end
    $var wire  1 s( axi4Interface_full_b_fire_7 $end
    $var wire  1 -) axi4Interface_full_w_fire $end
    $var wire  1 #$ axi4Interface_isBurstComplete $end
    $var wire  1 {( axi4Interface_isInitialIterate $end
    $var wire  1 M% axi4Interface_isRefreshAddr $end
    $var wire  1 E% axi4Interface_newBurst $end
    $var wire  1 # axi4Interface_resetStartSendSignal $end
    $var wire 32 e) axi4Interface_transferDataType [31:0] $end
    $var wire  8 C( burstLen [7:0] $end
    $var wire  8 =% burstLengthReg [7:0] $end
    $var wire 32 S$ m_axi_awaddr [31:0] $end
    $var wire  2 E) m_axi_awburst [1:0] $end
    $var wire  4 5) m_axi_awcache [3:0] $end
    $var wire  8 [$ m_axi_awlen [7:0] $end
    $var wire  3 M) m_axi_awprot [2:0] $end
    $var wire  4 5) m_axi_awqos [3:0] $end
    $var wire  1 g& m_axi_awready $end
    $var wire  4 5) m_axi_awregion [3:0] $end
    $var wire  3 =) m_axi_awsize [2:0] $end
    $var wire  1 K$ m_axi_awvalid $end
    $var wire  1 c$ m_axi_bready $end
    $var wire  2 +( m_axi_bresp [1:0] $end
    $var wire  1 y' m_axi_bvalid $end
    $var wire 32 o" m_axi_wdata [31:0] $end
    $var wire  1 3 m_axi_wlast $end
    $var wire  1 ;$ m_axi_wlast_regNext $end
    $var wire  1 Y' m_axi_wready $end
    $var wire  4 U) m_axi_wstrb [3:0] $end
    $var wire  1 g" m_axi_wvalid $end
    $var wire 32 S( offset [31:0] $end
    $var wire 32 U% offsetAddressReg [31:0] $end
    $var wire  8 [( pathNumb [7:0] $end
    $var wire 32 +$ s_axis_payload [31:0] $end
    $var wire  1 w" s_axis_ready $end
    $var wire  1 ; s_axis_valid $end
    $var wire  1 ;( start $end
    $var wire 32 K( startAddr [31:0] $end
    $var wire  1 ?& startSendSignal $end
    $var wire  9 %! streamFifo_2_io_availability [8:0] $end
    $var wire  9 { streamFifo_2_io_occupancy [8:0] $end
    $var wire 32 C$ streamFifo_2_io_pop_m2sPipe_payload [31:0] $end
    $var wire  1 Y' streamFifo_2_io_pop_m2sPipe_ready $end
    $var wire  1 ]% streamFifo_2_io_pop_m2sPipe_valid $end
    $var wire 32 3$ streamFifo_2_io_pop_payload [31:0] $end
    $var wire 32 C$ streamFifo_2_io_pop_rData [31:0] $end
    $var wire  1 ]% streamFifo_2_io_pop_rValid $end
    $var wire  1 '" streamFifo_2_io_pop_ready $end
    $var wire  1 s streamFifo_2_io_pop_valid $end
    $var wire  1 ]! streamFifo_2_io_push_fire $end
    $var wire 32 A# streamFifo_2_io_push_payload [31:0] $end
    $var wire  1 k streamFifo_2_io_push_ready $end
    $var wire  1 9# streamFifo_2_io_push_valid $end
    $var wire  1 #$ transInterrupt $end
    $var wire  1 I# when_Axi4WriteOnlyMater_l105 $end
    $var wire  1 /" when_Axi4WriteOnlyMater_l131 $end
    $var wire  1 %) when_Axi4WriteOnlyMater_l152 $end
    $var wire  1 Q# when_Axi4WriteOnlyMater_l159 $end
    $var wire  1 Y# when_Axi4WriteOnlyMater_l164 $end
    $var wire  1 a# when_Axi4WriteOnlyMater_l187 $end
    $var wire  1 e% when_Stream_l342 $end
    $scope module streamFifo_2 $end
     $var wire  1 k( aclk $end
     $var wire  1 3( aresetn $end
     $var wire  9 %! io_availability [8:0] $end
     $var wire  1 ]) io_flush $end
     $var wire  9 { io_occupancy [8:0] $end
     $var wire 32 3$ io_pop_payload [31:0] $end
     $var wire  1 '" io_pop_ready $end
     $var wire  1 s io_pop_valid $end
     $var wire 32 A# io_push_payload [31:0] $end
     $var wire  1 k io_push_ready $end
     $var wire  1 9# io_push_valid $end
     $var wire  1 5! logic_empty $end
     $var wire  1 =! logic_full $end
     $var wire  8 }% logic_popPtr_value [7:0] $end
     $var wire  8 G" logic_popPtr_valueNext [7:0] $end
     $var wire  1 ]) logic_popPtr_willClear $end
     $var wire  1 ?" logic_popPtr_willIncrement $end
     $var wire  1 M! logic_popPtr_willOverflow $end
     $var wire  1 '& logic_popPtr_willOverflowIfInc $end
     $var wire  1 O" logic_popping $end
     $var wire  8 7& logic_ptrDif [7:0] $end
     $var wire  1 -! logic_ptrMatch $end
     $var wire  8 m% logic_pushPtr_value [7:0] $end
     $var wire  8 q# logic_pushPtr_valueNext [7:0] $end
     $var wire  1 ]) logic_pushPtr_willClear $end
     $var wire  1 i# logic_pushPtr_willIncrement $end
     $var wire  1 e! logic_pushPtr_willOverflow $end
     $var wire  1 u% logic_pushPtr_willOverflowIfInc $end
     $var wire  1 y# logic_pushing $end
     $var wire  1 /& logic_risingOccupancy $end
     $var wire  1 _" when_Stream_l946 $end
    $upscope $end
   $upscope $end
   $scope module fifoInstance $end
    $var wire  1 k( aclk $end
    $var wire  1 3( aresetn $end
    $var wire  9 K io_availability [8:0] $end
    $var wire  1 ]) io_flush $end
    $var wire  9 C io_occupancy [8:0] $end
    $var wire 32 +$ io_pop_payload [31:0] $end
    $var wire  1 w" io_pop_ready $end
    $var wire  1 ; io_pop_valid $end
    $var wire 32 W& io_push_payload [31:0] $end
    $var wire  1 + io_push_ready $end
    $var wire  1 G& io_push_valid $end
    $var wire  1 [ logic_empty $end
    $var wire  1 c logic_full $end
    $var wire  8 {$ logic_popPtr_value [7:0] $end
    $var wire  8 )# logic_popPtr_valueNext [7:0] $end
    $var wire  1 ]) logic_popPtr_willClear $end
    $var wire  1 !# logic_popPtr_willIncrement $end
    $var wire  1 U! logic_popPtr_willOverflow $end
    $var wire  1 %% logic_popPtr_willOverflowIfInc $end
    $var wire  1 1# logic_popping $end
    $var wire  8 5% logic_ptrDif [7:0] $end
    $var wire  1 S logic_ptrMatch $end
    $var wire  8 k$ logic_pushPtr_value [7:0] $end
    $var wire  8 u! logic_pushPtr_valueNext [7:0] $end
    $var wire  1 ]) logic_pushPtr_willClear $end
    $var wire  1 m! logic_pushPtr_willIncrement $end
    $var wire  1 E! logic_pushPtr_willOverflow $end
    $var wire  1 s$ logic_pushPtr_willOverflowIfInc $end
    $var wire  1 }! logic_pushing $end
    $var wire  1 -% logic_risingOccupancy $end
    $var wire  1 W" when_Stream_l946 $end
   $upscope $end
  $upscope $end
 $upscope $end
$enddefinitions $end


#0
1#
1+
03
0;
b000000000 C
b100000000 K
1S
1[
0c
1k
0s
b000000000 {
b100000000 %!
1-!
15!
0=!
0E!
0M!
0U!
0]!
0e!
0m!
b00000000 u!
0}!
0'"
0/"
07"
0?"
b00000000 G"
0O"
0W"
0_"
0g"
b10010101111111011010101011101101 o"
0w"
0!#
b00000000 )#
01#
09#
b10011100011010001111000000000001 A#
0I#
0Q#
0Y#
0a#
0i#
b00000000 q#
0y#
0#$
b10011100011010001111000000000001 +$
b10010101111111011010101011101101 3$
1;$
b11001001100001000010001100110100 C$
0K$
b00000000000000000000000000000000 S$
b11111110 [$
0c$
b00000000 k$
0s$
b00000000 {$
0%%
0-%
b00000000 5%
b11111111 =%
1E%
1M%
b00000000000000000000000000000000 U%
0]%
1e%
b00000000 m%
0u%
b00000000 }%
0'&
0/&
b00000000 7&
0?&
0G&
1O&
b00000000000000000000000000100000 W&
0_&
0g&
b00000000000000000000000000000000 o&
b0000 w&
b11111110 !'
b010 )'
b01 1'
b0000 9'
b0000 A'
b000 I'
0Q'
0Y'
b10010101111111011010101011101101 a'
b1111 i'
0q'
0y'
0#(
b00 +(
03(
0;(
b10000000 C(
b00000000000000000000000000000000 K(
b00000000000000000000001000000000 S(
b00100000 [(
0c(
0k(
0s(
1{(
0%)
0-)
b0000 5)
b010 =)
b01 E)
b000 M)
b1111 U)
0])
b11101101000111111000101000111000 e)
#160
13(
#170
0#
b01110011100110000011110001101101 o"
b01001010101111010011001111011000 A#
b01001010101111010011001111011000 +$
b01110011100110000011110001101101 3$
0;$
b01111111 [$
b10000000 =%
b01111111 !'
b01110011100110000011110001101101 a'
1k(
#175
0k(
#180
1k(
#185
0k(
#190
1'"
1/"
b11001001100001000010001100110100 o"
1w"
1I#
1Q#
1a#
1?&
b11001001100001000010001100110100 a'
1;(
1k(
#195
1m!
b00000001 u!
1}!
1W"
1G&
b00000000000000000000000010000001 W&
1g&
1Y'
0;(
b00000000000000000000000000001111 K(
0k(
#200
b000000001 C
b011111111 K
0S
0[
0m!
0}!
0W"
b01110011100110000011110001101101 o"
0Q#
b01110011100110000011110001101101 C$
1K$
b00000000000000000000000000001111 S$
b00000001 k$
1-%
b00000001 5%
0M%
b00000000000000000000001000000000 U%
0G&
b00000000000000000000000011001100 W&
1_&
0g&
b00000000000000000000000000001111 o&
0Y'
b01110011100110000011110001101101 a'
b00000000000000000000000000000111 K(
1k(
#205
0k(
#210
1;
1]!
1m!
b00000010 u!
1}!
17"
1_"
1!#
b00000001 )#
11#
19#
b00000000000000000000000010000001 A#
1i#
b00000001 q#
1y#
b00000000000000000000000010000001 +$
1G&
b00000000000000000000000011100101 W&
1g&
1Y'
b00000000000000000000000000000100 K(
1k(
#215
0k(
#220
0;
b000000001 {
b011111111 %!
0-!
05!
0]!
0m!
0}!
07"
0_"
0!#
01#
09#
b11110001000010101101011000010111 A#
0i#
0y#
b11110001000010101101011000010111 +$
0K$
b00000010 k$
b00000001 {$
0E%
b00000001 m%
1/&
b00000001 7&
0G&
b00000000000000000000000000101010 W&
0_&
b00000000000000000000000000001011 K(
1k(
#225
0k(
#230
1;
1s
1]!
1?"
b00000001 G"
1O"
1W"
1!#
b00000010 )#
11#
19#
b00000000000000000000000011100101 A#
1i#
b00000010 q#
1y#
b00000000000000000000000011100101 +$
b00000000000000000000000010000001 3$
b00000000000000000000000011000100 W&
0g&
0Y'
1k(
#235
0k(
#240
0;
b000000000 C
b100000000 K
1S
1[
0s
0]!
0?"
0O"
0W"
1g"
b00000000000000000000000010000001 o"
0!#
01#
09#
b00010000010000000001010011101000 A#
0i#
0y#
b00010000010000000001010011101000 +$
b10010011110000101111111110100100 3$
b00000000000000000000000010000001 C$
b00000010 {$
0-%
b00000000 5%
1]%
0e%
b00000010 m%
b00000001 }%
b00000000000000000000000000111000 W&
1g&
1Q'
1Y'
b00000000000000000000000010000001 a'
b00000000000000000000000000000011 K(
1k(
1-)
#245
0k(
#250
1s
1?"
b00000010 G"
1O"
1_"
0g"
b10010011110000101111111110100100 o"
b00000000000000000000000011100101 3$
b10010011110000101111111110100100 C$
1c$
0]%
1e%
b00000000000000000000000001011111 W&
0g&
0Q'
0Y'
b10010011110000101111111110100100 a'
1#(
b00000000000000000000000000000001 K(
1k(
0-)
#255
0k(
#260
0s
b000000000 {
b100000000 %!
1-!
15!
0?"
0O"
0_"
1g"
b00000000000000000000000011100101 o"
b00010000100101100011100011111011 3$
b00000000000000000000000011100101 C$
1]%
0e%
b00000010 }%
0/&
b00000000 7&
b00000000000000000000000010100101 W&
1g&
1Q'
1Y'
b00000000000000000000000011100101 a'
b00000000000000000000000000001101 K(
1k(
1-)
#265
0k(
#270
1m!
b00000011 u!
1}!
1W"
0g"
b00010000100101100011100011111011 o"
b00010000100101100011100011111011 C$
0]%
1e%
1G&
b00000000000000000000000010001001 W&
0g&
0Q'
0Y'
b00010000100101100011100011111011 a'
b00000000000000000000000000000010 K(
1k(
0-)
#275
0k(
#280
b000000001 C
b011111111 K
0S
0[
b00000100 u!
b00000011 k$
1-%
b00000001 5%
b00000000000000000000000010000111 W&
1g&
1Y'
b00000000000000000000000000001110 K(
1k(
#285
0k(
#290
1;
b000000010 C
b011111110 K
1]!
0m!
0}!
1_"
1!#
b00000011 )#
11#
19#
b00000000000000000000000010001001 A#
1i#
b00000011 q#
1y#
b00000000000000000000000010001001 +$
b00000100 k$
b00000010 5%
0G&
b00000000000000000000000000111001 W&
b00000000000000000000000000000111 K(
1k(
#295
0k(
#300
b000000001 C
b011111111 K
b000000001 {
b011111111 %!
0-!
05!
b00000100 )#
b00000000000000000000000010000111 A#
b00000100 q#
b00000000000000000000000010000111 +$
b00000011 {$
0-%
b00000001 5%
b00000011 m%
1/&
b00000001 7&
b00000000000000000000000000100100 W&
b00000000000000000000000000000101 K(
1k(
#305
0k(
#310
0;
b000000000 C
b100000000 K
1S
1[
1s
b000000010 {
b011111110 %!
0]!
1?"
b00000011 G"
1O"
0W"
0!#
01#
09#
b11111010100110101110011101001111 A#
0i#
0y#
b11111010100110101110011101001111 +$
b00000000000000000000000010001001 3$
b00000100 {$
b00000000 5%
b00000100 m%
b00000010 7&
b00000000000000000000000010011101 W&
0g&
0Y'
b00000000000000000000000000000010 K(
1k(
#315
0k(
#320
b000000001 {
b011111111 %!
0'"
0?"
0O"
0_"
1g"
b00000000000000000000000010001001 o"
b00000000000000000000000010000111 3$
b00000000000000000000000010001001 C$
1]%
0e%
b00000011 }%
0/&
b00000001 7&
b00000000000000000000000010100011 W&
1Q'
b00000000000000000000000010001001 a'
b00000000000000000000000000000100 K(
1k(
#325
0k(
#330
b00000000000000000000000000000110 W&
b00000000000000000000000000001000 K(
1k(
#335
0k(
#340
b00000000000000000000000010100001 W&
b00000000000000000000000000000001 K(
1k(
#345
0k(
#350
1m!
b00000101 u!
1}!
1'"
1?"
b00000100 G"
1O"
1W"
1_"
1G&
b00000000000000000000000000101010 W&
1g&
1Y'
b00000000000000000000000000000000 K(
1k(
1-)
#355
0k(
#360
b000000001 C
b011111111 K
0S
0[
0s
b000000000 {
b100000000 %!
1-!
15!
0m!
0}!
0?"
0O"
0W"
0_"
b00000000000000000000000010000111 o"
b11101100111100111001000000010110 3$
b00000000000000000000000010000111 C$
b00000101 k$
1-%
b00000001 5%
b00000100 }%
b00000000 7&
0G&
b00000000000000000000000000110000 W&
b00000000000000000000000010000111 a'
b00000000000000000000000000000011 K(
1k(
#365
0k(
#370
1;
1]!
1m!
b00000110 u!
1}!
1_"
0g"
b11101100111100111001000000010110 o"
1!#
b00000101 )#
11#
19#
b00000000000000000000000000101010 A#
1i#
b00000101 q#
1y#
b00000000000000000000000000101010 +$
b11101100111100111001000000010110 C$
0]%
1e%
1G&
b00000000000000000000000001111110 W&
0g&
0Q'
0Y'
b11101100111100111001000000010110 a'
b00000000000000000000000000001111 K(
1k(
0-)
#375
0k(
#380
0;
b000000001 {
b011111111 %!
0-!
05!
0]!
0m!
0}!
0_"
0!#
01#
09#
b00101000110100111000001010110010 A#
0i#
0y#
b00101000110100111000001010110010 +$
b00000110 k$
b00000101 {$
b00000101 m%
1/&
b00000001 7&
0G&
b00000000000000000000000011111001 W&
1g&
1Y'
b00000000000000000000000000001110 K(
1k(
#385
0k(
#390
1;
1s
1]!
1m!
b00000111 u!
1}!
1?"
b00000101 G"
1O"
1!#
b00000110 )#
11#
19#
b00000000000000000000000001111110 A#
1i#
b00000110 q#
1y#
b00000000000000000000000001111110 +$
b00000000000000000000000000101010 3$
1G&
b00000000000000000000000011001001 W&
b00000000000000000000000000000011 K(
1k(
#395
0k(
#400
0;
0s
0]!
b00001000 u!
0?"
0O"
1W"
1g"
b00000000000000000000000000101010 o"
0!#
01#
09#
b10100010100000101100101001001010 A#
0i#
0y#
b10100010100000101100101001001010 +$
b11001110010011111110011110111001 3$
b00000000000000000000000000101010 C$
b00000111 k$
b00000110 {$
1]%
0e%
b00000110 m%
b00000101 }%
b00000000000000000000000000101001 W&
1Q'
b00000000000000000000000000101010 a'
b00000000000000000000000000001100 K(
1k(
1-)
#405
0k(
#410
1;
b000000010 C
b011111110 K
1s
1]!
b00001001 u!
1?"
b00000110 G"
1O"
0W"
0g"
b11001110010011111110011110111001 o"
1!#
b00000111 )#
11#
19#
b00000000000000000000000011001001 A#
1i#
b00000111 q#
1y#
b00000000000000000000000011001001 +$
b00000000000000000000000001111110 3$
b11001110010011111110011110111001 C$
b00001000 k$
b00000010 5%
0]%
1e%
b00000000000000000000000010111110 W&
0g&
0Q'
0Y'
b11001110010011111110011110111001 a'
b00000000000000000000000000001101 K(
1k(
0-)
#415
0k(
#420
0s
b00001010 u!
0?"
0O"
1_"
1g"
b00000000000000000000000001111110 o"
b00001000 )#
b00000000000000000000000000101001 A#
b00001000 q#
b00000000000000000000000000101001 +$
b00000100001110100110100111000000 3$
b00000000000000000000000001111110 C$
b00001001 k$
b00000111 {$
1]%
0e%
b00000111 m%
b00000110 }%
b00000000000000000000000001001001 W&
1g&
1Q'
1Y'
b00000000000000000000000001111110 a'
b00000000000000000000000000001001 K(
1k(
1-)
#425
0k(
#430
1s
b000000010 {
b011111110 %!
0m!
0}!
1?"
b00000111 G"
1O"
1W"
0_"
0g"
b00000100001110100110100111000000 o"
b00001001 )#
b00000000000000000000000010111110 A#
b00001001 q#
b00000000000000000000000010111110 +$
b00000000000000000000000011001001 3$
b00000100001110100110100111000000 C$
b00001010 k$
b00001000 {$
0]%
1e%
b00001000 m%
b00000010 7&
0G&
b00000000000000000000000011111101 W&
0g&
0Q'
0Y'
b00000100001110100110100111000000 a'
b00000000000000000000000000000111 K(
1k(
0-)
#435
0k(
#440
b000000001 C
b011111111 K
0'"
0?"
0O"
1_"
1g"
b00000000000000000000000011001001 o"
b00001010 )#
b00000000000000000000000001001001 A#
b00001010 q#
b00000000000000000000000001001001 +$
b00000000000000000000000000101001 3$
b00000000000000000000000011001001 C$
b00001001 {$
0-%
b00000001 5%
1]%
0e%
b00001001 m%
b00000111 }%
b00000000000000000000000001011001 W&
1Q'
b00000000000000000000000011001001 a'
b00000000000000000000000000001011 K(
1k(
#445
0k(
#450
0;
b000000000 C
b100000000 K
1S
1[
b000000011 {
b011111101 %!
0]!
1m!
b00001011 u!
1}!
0_"
0!#
01#
09#
b01101010010001000011100010111110 A#
0i#
0y#
b01101010010001000011100010111110 +$
b00001010 {$
b00000000 5%
b00001010 m%
b00000011 7&
1G&
b00000000000000000000000011101110 W&
b00000000000000000000000000001001 K(
1k(
#455
0k(
#460
b000000001 C
b011111111 K
0S
0[
0m!
0}!
1'"
1?"
b00001000 G"
1O"
0W"
1_"
b00001011 k$
1-%
b00000001 5%
0G&
b00000000000000000000000001010100 W&
1g&
1Y'
b00000000000000000000000000000011 K(
1k(
1-)
#465
0k(
#470
1;
b000000010 {
b011111110 %!
1]!
1m!
b00001100 u!
1}!
0'"
0?"
0O"
b00000000000000000000000000101001 o"
1!#
b00001011 )#
11#
19#
b00000000000000000000000011101110 A#
1i#
b00001011 q#
1y#
b00000000000000000000000011101110 +$
b00000000000000000000000010111110 3$
b00000000000000000000000000101001 C$
b00001000 }%
0/&
b00000010 7&
1G&
b00000000000000000000000011010011 W&
0g&
0Y'
b00000000000000000000000000101001 a'
b00000000000000000000000000001110 K(
1k(
0-)
#475
0k(
#480
0;
b000000011 {
b011111101 %!
0]!
0m!
0}!
1'"
1?"
b00001001 G"
1O"
0!#
01#
09#
b10011101110010000110110100100100 A#
0i#
0y#
b10011101110010000110110100100100 +$
b00001100 k$
b00001011 {$
b00001011 m%
1/&
b00000011 7&
0G&
b00000000000000000000000011011000 W&
1g&
1Y'
b00000000000000000000000000001011 K(
1k(
1-)
#485
0k(
#490
1;
b000000010 {
b011111110 %!
1]!
1m!
b00001101 u!
1}!
b00001010 G"
0_"
b00000000000000000000000010111110 o"
1!#
b00001100 )#
11#
19#
b00000000000000000000000011010011 A#
1i#
b00001100 q#
1y#
b00000000000000000000000011010011 +$
b00000000000000000000000001001001 3$
b00000000000000000000000010111110 C$
b00001001 }%
0/&
b00000010 7&
1G&
b00000000000000000000000010100011 W&
b00000000000000000000000010111110 a'
b00000000000000000000000000001111 K(
1k(
#495
0k(
#500
0;
0]!
b00001110 u!
b00001011 G"
1W"
1_"
b00000000000000000000000001001001 o"
0!#
01#
09#
b00100100010010110011100110000010 A#
0i#
0y#
b00100100010010110011100110000010 +$
b00000000000000000000000011101110 3$
b00000000000000000000000001001001 C$
b00001101 k$
b00001100 {$
b00001100 m%
b00001010 }%
b00000000000000000000000010101101 W&
b00000000000000000000000001001001 a'
b00000000000000000000000000000110 K(
1k(
#505
0k(
#510
1;
b000000010 C
b011111110 K
b000000001 {
b011111111 %!
1]!
0m!
0}!
b00001100 G"
0_"
b00000000000000000000000011101110 o"
1!#
b00001101 )#
11#
19#
b00000000000000000000000010100011 A#
1i#
b00001101 q#
1y#
b00000000000000000000000010100011 +$
b00000000000000000000000011010011 3$
b00000000000000000000000011101110 C$
b00001110 k$
b00000010 5%
b00001011 }%
b00000001 7&
0G&
b00000000000000000000000010111001 W&
b00000000000000000000000011101110 a'
b00000000000000000000000000001001 K(
1k(
#515
0k(
#520
b000000001 C
b011111111 K
0s
1m!
b00001111 u!
1}!
0'"
0?"
0O"
0W"
1_"
b00000000000000000000000011010011 o"
b00001110 )#
b00000000000000000000000010101101 A#
b00001110 q#
b00000000000000000000000010101101 +$
b00111010111000100001110010110110 3$
b00000000000000000000000011010011 C$
b00001101 {$
0-%
b00000001 5%
b00001101 m%
b00001100 }%
1G&
b00000000000000000000000011100011 W&
0g&
0Y'
b00000000000000000000000011010011 a'
b00000000000000000000000000000000 K(
1k(
0-)
#525
0k(
#530
0;
1s
b000000010 {
b011111110 %!
0]!
b00010000 u!
1W"
0_"
0!#
01#
09#
b11110011100001100011101010110100 A#
0i#
0y#
b11110011100001100011101010110100 +$
b00000000000000000000000010100011 3$
b00001111 k$
b00001110 {$
b00001110 m%
1/&
b00000010 7&
b00000000000000000000000010110110 W&
b00000000000000000000000000001101 K(
1k(
#535
0k(
#540
1;
b000000010 C
b011111110 K
1]!
0m!
0}!
1'"
1?"
b00001101 G"
1O"
1!#
b00001111 )#
11#
19#
b00000000000000000000000011100011 A#
1i#
b00001111 q#
1y#
b00000000000000000000000011100011 +$
b00010000 k$
1-%
b00000010 5%
0G&
b00000000000000000000000010010110 W&
1g&
1Y'
b00000000000000000000000000000110 K(
1k(
1-)
#545
0k(
#550
b000000001 C
b011111111 K
1m!
b00010001 u!
1}!
b00001110 G"
0W"
b00000000000000000000000010100011 o"
b00010000 )#
b00000000000000000000000010110110 A#
b00010000 q#
b00000000000000000000000010110110 +$
b00000000000000000000000010101101 3$
b00000000000000000000000010100011 C$
b00001111 {$
0-%
b00000001 5%
b00001111 m%
b00001101 }%
1G&
b00000000000000000000000011001110 W&
b00000000000000000000000010100011 a'
b00000000000000000000000000000100 K(
1k(
#555
0k(
#560
0;
0]!
b00010010 u!
0'"
0?"
0O"
1W"
b00000000000000000000000010101101 o"
0!#
01#
09#
b00001111000010010010011010000111 A#
0i#
0y#
b00001111000010010010011010000111 +$
b00000000000000000000000011100011 3$
b00000000000000000000000010101101 C$
b00010001 k$
b00010000 {$
b00010000 m%
b00001110 }%
b00000000000000000000000010010001 W&
0g&
0Y'
b00000000000000000000000010101101 a'
b00000000000000000000000000000011 K(
1k(
0-)
#565
0k(
#570
1;
b000000010 C
b011111110 K
1]!
0m!
0}!
1'"
1?"
b00001111 G"
1O"
1!#
b00010001 )#
11#
19#
b00000000000000000000000011001110 A#
1i#
b00010001 q#
1y#
b00000000000000000000000011001110 +$
b00010010 k$
1-%
b00000010 5%
0G&
b00000000000000000000000001101011 W&
1g&
1Y'
b00000000000000000000000000001100 K(
1k(
1-)
#575
0k(
#580
b000000001 C
b011111111 K
1m!
b00010011 u!
1}!
0'"
0?"
0O"
0W"
1_"
b00000000000000000000000011100011 o"
b00010010 )#
b00000000000000000000000010010001 A#
b00010010 q#
b00000000000000000000000010010001 +$
b00000000000000000000000010110110 3$
b00000000000000000000000011100011 C$
b00010001 {$
0-%
b00000001 5%
b00010001 m%
b00001111 }%
1G&
b00000000000000000000000011010000 W&
0g&
0Y'
b00000000000000000000000011100011 a'
b00000000000000000000000000000111 K(
1k(
0-)
#585
0k(
#590
0;
b000000011 {
b011111101 %!
0]!
0m!
0}!
0_"
0!#
01#
09#
b00011110011011000110001011000011 A#
0i#
0y#
b00011110011011000110001011000011 +$
b00010011 k$
b00010010 {$
b00010010 m%
b00000011 7&
0G&
b00000000000000000000000000100100 W&
b00000000000000000000000000001101 K(
1k(
#595
0k(
#600
1;
1]!
1m!
b00010100 u!
1}!
1_"
1!#
b00010011 )#
11#
19#
b00000000000000000000000011010000 A#
1i#
b00010011 q#
1y#
b00000000000000000000000011010000 +$
1G&
b00000000000000000000000001010011 W&
b00000000000000000000000000000111 K(
1k(
#605
0k(
#610
0;
b000000100 {
b011111100 %!
0]!
0m!
0}!
1'"
1?"
b00010000 G"
1O"
0!#
01#
09#
b11110011000101010110111011100010 A#
0i#
0y#
b11110011000101010110111011100010 +$
b00010100 k$
b00010011 {$
b00010011 m%
b00000100 7&
0G&
b00000000000000000000000000001100 W&
1g&
1Y'
b00000000000000000000000000001110 K(
1k(
1-)
#615
0k(
